5.3 Agrupando y reduciendo con group_by() %>% summarise() | Documento Técnico N°6: Ciencia de Datos para el Turismo
…
5.3 Agrupando y reduciendo con group_by() %>% summarise()

Si querés calcular la expectativa de vida media para cada continente, tenés que usar el combo group_by() %>% summarise().
Es decir, primero agrupar la tabla según la columna continente y luego calcular un promedio para cada grupo.

Para agrupar la tabla países según el continente usamos el siguiente código:

paises %>% 
  group_by(continente) 

## # A tibble: 1,704 × 6
## # Groups:   continente [5]
##    pais       continente  anio esperanza_de_vida poblacion pib_per_capita
##    <chr>      <chr>      <dbl>             <dbl>     <dbl>          <dbl>
##  1 Afganistán Asia        1952              28.8   8425333           779.
##  2 Afganistán Asia        1957              30.3   9240934           821.
##  3 Afganistán Asia        1962              32.0  10267083           853.
##  4 Afganistán Asia        1967              34.0  11537966           836.
##  5 Afganistán Asia        1972              36.1  13079460           740.
##  6 Afganistán Asia        1977              38.4  14880372           786.
##  7 Afganistán Asia        1982              39.9  12881816           978.
##  8 Afganistán Asia        1987              40.8  13867957           852.
##  9 Afganistán Asia        1992              41.7  16317921           649.
## 10 Afganistán Asia        1997              41.8  22227415           635.
## # … with 1,694 more rows
…
group_by() permite agrupar en base a múltiples columnas y summarise() permite generar múltiples columnas de resumen.
El siguiente código calcula la esperanza de vida media y su desvío estándar para cada continente y cada año.

paises %>% 
  group_by(continente, anio) %>% 
  summarise(esperanza_de_vida_media = mean(esperanza_de_vida),
            esperanza_de_vida_sd = sd(esperanza_de_vida))

## `summarise()` has grouped output by 'continente'. You can override using the `.groups` argument.

## # A tibble: 60 × 4
## # Groups:   continente [5]
##    continente  anio esperanza_de_vida_media esperanza_de_vida_sd
##    <chr>      <dbl>                   <dbl>                <dbl>
##  1 África      1952                    39.1                 5.15
##  2 África      1957                    41.3                 5.62
##  3 África      1962                    43.3                 5.88
##  4 África      1967                    45.3                 6.08
##  5 África      1972                    47.5                 6.42
##  6 África      1977                    49.6                 6.81
##  7 África      1982                    51.6                 7.38
##  8 África      1987                    53.3                 7.86
##  9 África      1992                    53.6                 9.46
## 10 África      1997                    53.6                 9.10
## # … with 50 more rows
…
