7.2 De largo a ancho con pivot_wider() | Documento Técnico N°6: Ciencia de Datos para el Turismo
…
7.2 De largo a ancho con pivot_wider()

Ahora la variable paises_largo está en el formato más largo posible.
Tiene 5 columnas, de las cuales sólo una es la columnas con valores.
Pero con los datos así no podrías hacer un gráfico de puntos que muestre la relación entre el PBI per cápita y la expectativa de vida como en la sección de gráficos.
Fijate que los valores de la columna valor no tienen todos las mismas unidades, por lo que operar con ese vector podría dar resultados sin sentido.
Muchas veces es conveniente y natural tener los datos en un formato intermedio en donde hay múltiples columnas con los valores de distintas variables observadas.

Pasa “ensanchar” una tabla está la función pivot_wider() (“wider” es “más ancha” en inglés) y el código para conseguir este formato intermedio es:

paises_medio <- pivot_wider(paises_largo, names_from = variable, values_from = valor)
paises_medio

## # A tibble: 1,704 × 6
##    continente pais     anio poblacion esperanza_de_vida pib_per_capita
##    <chr>      <chr>   <int>     <dbl>             <dbl>          <dbl>
##  1 Africa     Algeria  1952   9279525              43.1          2449.
##  2 Africa     Algeria  1957  10270856              45.7          3014.
##  3 Africa     Algeria  1962  11000948              48.3          2551.
##  4 Africa     Algeria  1967  12760499              51.4          3247.
##  5 Africa     Algeria  1972  14760787              54.5          4183.
##  6 Africa     Algeria  1977  17152804              58.0          4910.
##  7 Africa     Algeria  1982  20033753              61.4          5745.
##  8 Africa     Algeria  1987  23254956              65.8          5681.
##  9 Africa     Algeria  1992  26298373              67.7          5023.
## 10 Africa     Algeria  1997  29072015              69.2          4797.
## # … with 1,694 more rows

Nuevamente el primer argumento es la tabla original.
El segundo, names_from es la columna cuyos valores únicos van a convertirse en nuevas columnas.
La columna variable tiene los valores "población", "esperanza_de_vida" y "pib_per_capita" y entonces la tabla nueva tendrá tres columnas con esos nombres.
El tercer argumento, values_from, es la columna de la cual sacar los valores.

Para volver al formato más ancho, basta con agregar más columnas en el argumento names_from:

pivot_wider(paises_largo, 
            names_from = c(variable, anio), 
            names_sep = "_",
            values_from = valor)

## # A tibble: 142 × 38
##    continente pais   poblacion_1952 poblacion_1957 poblacion_1962 poblacion_1967
##    <chr>      <chr>           <dbl>          <dbl>          <dbl>          <dbl>
##  1 Africa     Alger…        9279525       10270856       11000948       12760499
##  2 Africa     Angola        4232095        4561361        4826015        5247469
##  3 Africa     Benin         1738315        1925173        2151895        2427334
##  4 Africa     Botsw…         442308         474639         512764         553541
##  5 Africa     Burki…        4469979        4713416        4919632        5127935
##  6 Africa     Burun…        2445618        2667518        2961915        3330989
##  7 Africa     Camer…        5009067        5359923        5793633        6335506
##  8 Africa     Centr…        1291695        1392284        1523478        1733638
##  9 Africa     Chad          2682462        2894855        3150417        3495967
## 10 Africa     Comor…         153936         170928         191689         217378
## # … with 132 more rows, and 32 more variables: poblacion_1972 <dbl>,
## #   poblacion_1977 <dbl>, poblacion_1982 <dbl>, poblacion_1987 <dbl>,
## #   poblacion_1992 <dbl>, poblacion_1997 <dbl>, poblacion_2002 <dbl>,
## #   poblacion_2007 <dbl>, esperanza_de_vida_1952 <dbl>,
## #   esperanza_de_vida_1957 <dbl>, esperanza_de_vida_1962 <dbl>,
## #   esperanza_de_vida_1967 <dbl>, esperanza_de_vida_1972 <dbl>,
## #   esperanza_de_vida_1977 <dbl>, esperanza_de_vida_1982 <dbl>, …
…
