Capítulo 8 Manipulación de datos ordenados usando {dplyr} y {tidyr} II | Documento Técnico N°6: Ciencia de Datos para el Turismo
…
paises_ancho

=======

paises_ancho

>>>>>>> Stashed changes
=======

paises_ancho

>>>>>>> ggplot2

## # A tibble: 142 × 38
##    continente pais                     pib_per_capita_… pib_per_capita_… pib_per_capita_…
##    <chr>      <chr>                               <dbl>            <dbl>            <dbl>
##  1 Africa     Algeria                             2449.            3014.            2551.
##  2 Africa     Angola                              3521.            3828.            4269.
##  3 Africa     Benin                               1063.             960.             949.
##  4 Africa     Botswana                             851.             918.             984.
##  5 Africa     Burkina Faso                         543.             617.             723.
##  6 Africa     Burundi                              339.             380.             355.
##  7 Africa     Cameroon                            1173.            1313.            1400.
##  8 Africa     Central African Republic            1071.            1191.            1193.
##  9 Africa     Chad                                1179.            1308.            1390.
## 10 Africa     Comoros                             1103.            1211.            1407.
## # … with 132 more rows, and 33 more variables: pib_per_capita_1967 <dbl>,
## #   pib_per_capita_1972 <dbl>, pib_per_capita_1977 <dbl>,
## #   pib_per_capita_1982 <dbl>, pib_per_capita_1987 <dbl>,
## #   pib_per_capita_1992 <dbl>, pib_per_capita_1997 <dbl>,
## #   pib_per_capita_2002 <dbl>, pib_per_capita_2007 <dbl>,
## #   esperanza_de_vida_1952 <dbl>, esperanza_de_vida_1957 <dbl>,
## #   esperanza_de_vida_1962 <dbl>, esperanza_de_vida_1967 <dbl>, …
…
>>>>>>> Stashed changes
=======

paises_largo <- pivot_longer(paises_ancho,
                             cols = c(starts_with('pob'), 
                                      starts_with('esperanza'), 
                                      starts_with('pib_per')),
                             names_to = "variable_anio", 
                             values_to = "valor"
)
paises_largo

>>>>>>> ggplot2

## # A tibble: 5,112 × 4
##    continente pais    variable_anio     valor
##    <chr>      <chr>   <chr>             <dbl>
##  1 Africa     Algeria poblacion_1952  9279525
##  2 Africa     Algeria poblacion_1957 10270856
##  3 Africa     Algeria poblacion_1962 11000948
##  4 Africa     Algeria poblacion_1967 12760499
##  5 Africa     Algeria poblacion_1972 14760787
##  6 Africa     Algeria poblacion_1977 17152804
##  7 Africa     Algeria poblacion_1982 20033753
##  8 Africa     Algeria poblacion_1987 23254956
##  9 Africa     Algeria poblacion_1992 26298373
## 10 Africa     Algeria poblacion_1997 29072015
## # … with 5,102 more rows
…
>>>>>>> Stashed changes
=======

separate(paises_largo, 
         col = variable_anio, 
         into = c("variable", "anio"), 
         sep = -4)

>>>>>>> ggplot2

## # A tibble: 5,112 × 5
##    continente pais    variable   anio     valor
##    <chr>      <chr>   <chr>      <chr>    <dbl>
##  1 Africa     Algeria poblacion_ 1952   9279525
##  2 Africa     Algeria poblacion_ 1957  10270856
##  3 Africa     Algeria poblacion_ 1962  11000948
##  4 Africa     Algeria poblacion_ 1967  12760499
##  5 Africa     Algeria poblacion_ 1972  14760787
##  6 Africa     Algeria poblacion_ 1977  17152804
##  7 Africa     Algeria poblacion_ 1982  20033753
##  8 Africa     Algeria poblacion_ 1987  23254956
##  9 Africa     Algeria poblacion_ 1992  26298373
## 10 Africa     Algeria poblacion_ 1997  29072015
## # … with 5,102 more rows
…
>>>>>>> Stashed changes
=======

paises_largo <- separate(paises_largo, 
         col = variable_anio, 
         into = c("variable", "guion", "anio"), 
         sep = c(-5, -4))
paises_largo

>>>>>>> ggplot2

## # A tibble: 5,112 × 6
##    continente pais    variable  guion anio     valor
##    <chr>      <chr>   <chr>     <chr> <chr>    <dbl>
##  1 Africa     Algeria poblacion _     1952   9279525
##  2 Africa     Algeria poblacion _     1957  10270856
##  3 Africa     Algeria poblacion _     1962  11000948
##  4 Africa     Algeria poblacion _     1967  12760499
##  5 Africa     Algeria poblacion _     1972  14760787
##  6 Africa     Algeria poblacion _     1977  17152804
##  7 Africa     Algeria poblacion _     1982  20033753
##  8 Africa     Algeria poblacion _     1987  23254956
##  9 Africa     Algeria poblacion _     1992  26298373
## 10 Africa     Algeria poblacion _     1997  29072015
## # … with 5,102 more rows
…
>>>>>>> Stashed changes
=======

paises_largo <- mutate(paises_largo, 
                       guion = NULL,
                       anio = as.integer(anio))
paises_largo

>>>>>>> ggplot2

## # A tibble: 5,112 × 5
##    continente pais    variable   anio    valor
##    <chr>      <chr>   <chr>     <int>    <dbl>
##  1 Africa     Algeria poblacion  1952  9279525
##  2 Africa     Algeria poblacion  1957 10270856
##  3 Africa     Algeria poblacion  1962 11000948
##  4 Africa     Algeria poblacion  1967 12760499
##  5 Africa     Algeria poblacion  1972 14760787
##  6 Africa     Algeria poblacion  1977 17152804
##  7 Africa     Algeria poblacion  1982 20033753
##  8 Africa     Algeria poblacion  1987 23254956
##  9 Africa     Algeria poblacion  1992 26298373
## 10 Africa     Algeria poblacion  1997 29072015
## # … with 5,102 more rows
…
=======

paises_medio <- pivot_wider(paises_largo, names_from = variable, values_from = valor)
paises_medio

>>>>>>> Stashed changes
=======

paises_medio <- pivot_wider(paises_largo, names_from = variable, values_from = valor)
paises_medio

>>>>>>> ggplot2

## # A tibble: 1,704 × 6
##    continente pais     anio poblacion esperanza_de_vida pib_per_capita
##    <chr>      <chr>   <int>     <dbl>             <dbl>          <dbl>
##  1 Africa     Algeria  1952   9279525              43.1          2449.
##  2 Africa     Algeria  1957  10270856              45.7          3014.
##  3 Africa     Algeria  1962  11000948              48.3          2551.
##  4 Africa     Algeria  1967  12760499              51.4          3247.
##  5 Africa     Algeria  1972  14760787              54.5          4183.
##  6 Africa     Algeria  1977  17152804              58.0          4910.
##  7 Africa     Algeria  1982  20033753              61.4          5745.
##  8 Africa     Algeria  1987  23254956              65.8          5681.
##  9 Africa     Algeria  1992  26298373              67.7          5023.
## 10 Africa     Algeria  1997  29072015              69.2          4797.
## # … with 1,694 more rows
…
>>>>>>> Stashed changes
=======

pivot_wider(paises_largo, 
            names_from = c(variable, anio), 
            names_sep = "_",
            values_from = valor)

>>>>>>> ggplot2

## # A tibble: 142 × 38
##    continente pais   poblacion_1952 poblacion_1957 poblacion_1962 poblacion_1967
##    <chr>      <chr>           <dbl>          <dbl>          <dbl>          <dbl>
##  1 Africa     Alger…        9279525       10270856       11000948       12760499
##  2 Africa     Angola        4232095        4561361        4826015        5247469
##  3 Africa     Benin         1738315        1925173        2151895        2427334
##  4 Africa     Botsw…         442308         474639         512764         553541
##  5 Africa     Burki…        4469979        4713416        4919632        5127935
##  6 Africa     Burun…        2445618        2667518        2961915        3330989
##  7 Africa     Camer…        5009067        5359923        5793633        6335506
##  8 Africa     Centr…        1291695        1392284        1523478        1733638
##  9 Africa     Chad          2682462        2894855        3150417        3495967
## 10 Africa     Comor…         153936         170928         191689         217378
## # … with 132 more rows, and 32 more variables: poblacion_1972 <dbl>,
## #   poblacion_1977 <dbl>, poblacion_1982 <dbl>, poblacion_1987 <dbl>,
## #   poblacion_1992 <dbl>, poblacion_1997 <dbl>, poblacion_2002 <dbl>,
## #   poblacion_2007 <dbl>, esperanza_de_vida_1952 <dbl>,
## #   esperanza_de_vida_1957 <dbl>, esperanza_de_vida_1962 <dbl>,
## #   esperanza_de_vida_1967 <dbl>, esperanza_de_vida_1972 <dbl>,
## #   esperanza_de_vida_1977 <dbl>, esperanza_de_vida_1982 <dbl>, …
…
co2_2007 <- readr::read_csv("datos/co2_2007.csv")
co2_2007

>>>>>>> Stashed changes
=======

paises_2007 <- readr::read_csv("datos/paises.csv") %>% 
  filter(anio == 2007) 

co2_2007 <- readr::read_csv("datos/co2_2007.csv")
co2_2007

>>>>>>> ggplot2

## # A tibble: 218 × 3
##    codigo_iso emision_co2 pais                  
##    <chr>            <dbl> <chr>                 
##  1 ABW            27.9    Aruba                 
##  2 AFG             0.0854 Afghanistán           
##  3 AGO             1.20   Angola                
##  4 ALB             1.32   Albania               
##  5 AND             6.52   Andorra               
##  6 ARB             4.10   Mundo Árabe           
##  7 ARE            22.4    Emiratos Árabes Unidos
##  8 ARG             4.38   Argentina             
##  9 ARM             1.73   Armenia               
## 10 ATG             5.14   Antigua y Barbuda     
## # … with 208 more rows
…
=======

paises_co2_2007 <- full_join(paises_2007, co2_2007, by = "pais")
paises_co2_2007

>>>>>>> Stashed changes
=======

paises_co2_2007 <- full_join(paises_2007, co2_2007, by = "pais")
paises_co2_2007

>>>>>>> ggplot2

## # A tibble: 241 × 8
##    pais       continente  anio esperanza_de_vi… poblacion pib_per_capita codigo_iso
##    <chr>      <chr>      <dbl>            <dbl>     <dbl>          <dbl> <chr>     
##  1 Afganistán Asia        2007             43.8  31889923           975. <NA>      
##  2 Albania    Europa      2007             76.4   3600523          5937. ALB       
##  3 Argelia    África      2007             72.3  33333216          6223. <NA>      
##  4 Angola     África      2007             42.7  12420476          4797. AGO       
##  5 Argentina  Américas    2007             75.3  40301927         12779. ARG       
##  6 Australia  Oceanía     2007             81.2  20434176         34435. AUS       
##  7 Austria    Europa      2007             79.8   8199783         36126. AUT       
##  8 Baréin     Asia        2007             75.6    708573         29796. <NA>      
##  9 Bangladesh Asia        2007             64.1 150448339          1391. BGD       
## 10 Bélgica    Europa      2007             79.4  10392226         33693. BEL       
## # … with 231 more rows, and 1 more variable: emision_co2 <dbl>
…
=======

paises_co2_2007 <- left_join(paises_2007, co2_2007, by = "pais")
paises_co2_2007

>>>>>>> Stashed changes
=======

paises_co2_2007 <- left_join(paises_2007, co2_2007, by = "pais")
paises_co2_2007

>>>>>>> ggplot2

## # A tibble: 142 × 8
##    pais       continente  anio esperanza_de_vi… poblacion pib_per_capita codigo_iso
##    <chr>      <chr>      <dbl>            <dbl>     <dbl>          <dbl> <chr>     
##  1 Afganistán Asia        2007             43.8  31889923           975. <NA>      
##  2 Albania    Europa      2007             76.4   3600523          5937. ALB       
##  3 Argelia    África      2007             72.3  33333216          6223. <NA>      
##  4 Angola     África      2007             42.7  12420476          4797. AGO       
##  5 Argentina  Américas    2007             75.3  40301927         12779. ARG       
##  6 Australia  Oceanía     2007             81.2  20434176         34435. AUS       
##  7 Austria    Europa      2007             79.8   8199783         36126. AUT       
##  8 Baréin     Asia        2007             75.6    708573         29796. <NA>      
##  9 Bangladesh Asia        2007             64.1 150448339          1391. BGD       
## 10 Bélgica    Europa      2007             79.4  10392226         33693. BEL       
## # … with 132 more rows, and 1 more variable: emision_co2 <dbl>
…
=======

paises_co2_2007 <- inner_join(paises_2007, co2_2007, by = "pais")
paises_co2_2007

>>>>>>> Stashed changes
=======

paises_co2_2007 <- inner_join(paises_2007, co2_2007, by = "pais")
paises_co2_2007

>>>>>>> ggplot2

## # A tibble: 119 × 8
##    pais    continente  anio esperanza_de_vi… poblacion pib_per_capita codigo_iso
##    <chr>   <chr>      <dbl>            <dbl>     <dbl>          <dbl> <chr>     
##  1 Albania Europa      2007             76.4   3600523          5937. ALB       
##  2 Angola  África      2007             42.7  12420476          4797. AGO       
##  3 Argent… Américas    2007             75.3  40301927         12779. ARG       
##  4 Austra… Oceanía     2007             81.2  20434176         34435. AUS       
##  5 Austria Europa      2007             79.8   8199783         36126. AUT       
##  6 Bangla… Asia        2007             64.1 150448339          1391. BGD       
##  7 Bélgica Europa      2007             79.4  10392226         33693. BEL       
##  8 Bolivia Américas    2007             65.6   9119152          3822. BOL       
##  9 Bosnia… Europa      2007             74.9   4552198          7446. BIH       
## 10 Botswa… África      2007             50.7   1639131         12570. BWA       
## # … with 109 more rows, and 1 more variable: emision_co2 <dbl>
…
